{
    "cregit": {
        "meta": {
            "title": "Cregit",
            "type": "Software"
        },
        "git": ["https://github.com/cregit/cregit.git"],
        "github": ["https://github.com/cregit/cregit"]
    },
    "prospector":{
        "meta": {
            "title": "Prospector",
            "type": "Software"
        },
        "git": ["https://github.com/chaoss/prospector.git"],
        "github": ["https://github.com/chaoss/prospector"]
    },
  "grimoirelab": {
    "meta": {
      "title": "GrimoireLab",
      "type": "Software"
    },
    "git": [
      "https://github.com/chaoss/grimoirelab.git",
      "https://github.com/chaoss/grimoirelab-perceval.git",
      "https://github.com/chaoss/grimoirelab-graal.git",
      "https://github.com/chaoss/grimoirelab-sirmordred.git",
      "https://github.com/chaoss/grimoirelab-kingarthur.git",
      "https://github.com/chaoss/grimoirelab-tutorial.git",
      "https://github.com/chaoss/grimoirelab-sigils.git",
      "https://github.com/chaoss/grimoirelab-perceval-mozilla.git",
      "https://github.com/chaoss/grimoirelab-perceval-opnfv.git",
      "https://github.com/chaoss/grimoirelab-perceval-puppet.git",
      "https://github.com/chaoss/grimoirelab-sortinghat.git",
      "https://github.com/chaoss/grimoirelab-toolkit.git",
      "https://github.com/chaoss/grimoirelab-kidash.git",
      "https://github.com/chaoss/grimoirelab-hatstall.git",
      "https://github.com/chaoss/grimoirelab-cereslib.git",
      "https://github.com/chaoss/grimoirelab-manuscripts.git",
      "https://github.com/chaoss/grimoirelab-bestiary.git",
      "https://github.com/chaoss/grimoirelab-kibiter.git",
      "https://github.com/chaoss/grimoirelab-elk.git"
    ],
    "github": [
      "https://github.com/chaoss/grimoirelab",
      "https://github.com/chaoss/grimoirelab-perceval",
      "https://github.com/chaoss/grimoirelab-graal",
      "https://github.com/chaoss/grimoirelab-sirmordred",
      "https://github.com/chaoss/grimoirelab-kingarthur",
      "https://github.com/chaoss/grimoirelab-tutorial",
      "https://github.com/chaoss/grimoirelab-sigils",
      "https://github.com/chaoss/grimoirelab-perceval-mozilla",
      "https://github.com/chaoss/grimoirelab-perceval-opnfv",
      "https://github.com/chaoss/grimoirelab-perceval-puppet",
      "https://github.com/chaoss/grimoirelab-sortinghat",
      "https://github.com/chaoss/grimoirelab-toolkit",
      "https://github.com/chaoss/grimoirelab-kidash",
      "https://github.com/chaoss/grimoirelab-hatstall",
      "https://github.com/chaoss/grimoirelab-cereslib",
      "https://github.com/chaoss/grimoirelab-manuscripts",
      "https://github.com/chaoss/grimoirelab-bestiary",
      "https://github.com/chaoss/grimoirelab-kibiter",
      "https://github.com/chaoss/grimoirelab-elk"
    ],
    "pipermail": [
      "https://lists.linuxfoundation.org/pipermail/grimoirelab-discussions/"
    ]
  },
  "augur": {
      "meta": {
          "title": "Augur",
          "type": "Software"
      },
      "git": [
          "https://github.com/chaoss/augur.git",
          "https://github.com/chaoss/augur-sbom.git"
          ],
      "github": [
          "https://github.com/chaoss/augur",
          "https://github.com/chaoss/augur-sbom"
          ]
  },
  "main":{
      "meta":{
          "title": "Main project",
          "type": "Discussion"
      },
      "pipermail": [
          "https://lists.linuxfoundation.org/pipermail/chaoss/",
          "https://lists.linuxfoundation.org/pipermail/oss-health-metrics/"
          ]
  },
  "metrics": {
      "meta": {
          "title": "Metrics",
          "type": "Discussion"
      },
      "git": ["https://github.com/chaoss/metrics.git"],
      "github": ["https://github.com/chaoss/metrics"]
  },
  "governing":{
      "meta":{
          "title": "Governance",
          "type": "Discussion"
      },
      "pipermail": ["https://lists.linuxfoundation.org/pipermail/chaoss-members/"]
  },
  "software":{
      "meta":{
          "title": "Software Comittee",
          "type": "Discussion"
      },
      "pipermail": ["https://lists.linuxfoundation.org/pipermail/chaoss-software/"]
  },
  "common-wg": {
      "meta": {
          "title": "Common WG",
          "type": "WG"
      },
      "git": ["https://github.com/chaoss/wg-common.git"],
      "github": ["https://github.com/chaoss/wg-common"]
  },
  "dandi-wg": {
      "meta": {
          "title": "Diversity and Inclusion WG",
          "type": "WG"
      },
      "git": ["https://github.com/chaoss/wg-diversity-inclusion.git"],
      "github": ["https://github.com/chaoss/wg-diversity-inclusion"],
      "pipermail": ["https://lists.linuxfoundation.org/pipermail/chaoss-diversity-inclusion/"]
  },
  "evolution-wg": {
      "meta": {
          "title": "Evolution WG",
          "type": "WG"
      },
      "git": ["https://github.com/chaoss/wg-evolution.git"],
      "github": ["https://github.com/chaoss/wg-evolution"]
  },
  "risk-wg": {
      "meta": {
          "title": "Risk WG",
          "type": "WG"
      },
      "git": ["https://github.com/chaoss/wg-risk.git"],
      "github": ["https://github.com/chaoss/wg-risk"]
  },
  "value-wg": {
      "meta": {
          "title": "Value WG",
          "type": "WG"
      },
      "git": ["https://github.com/chaoss/wg-value.git"],
      "github": ["https://github.com/chaoss/wg-value"]
  }
}